[
  { "text": "Afghan" },
  { "text": "African" },
  { "text": "Albanian" },
  { "text": "American" },
  { "text": "Arabian" },
  { "text": "Argentinian" },
  { "text": "Asian Fusion" },
  { "text": "Australian" },
  { "text": "Austrian" },
  { "text": "Bagels" },
  { "text": "Bakery" },
  { "text": "Bangladeshi" },
  { "text": "BBQ" },
  { "text": "Belgian" },
  { "text": "Brasseries" },
  { "text": "Brazilian" },
  { "text": "British" },
  { "text": "Buffets" },
  { "text": "Burgers" },
  { "text": "Bar Food" },
  { "text": "Cafe" },
  { "text": "Californian" },
  { "text": "Calzones" },
  { "text": "Cambodian" },
  { "text": "Cantonese" },
  { "text": "Caribbean" },
  { "text": "Catalan" },
  { "text": "Chicken wings" },
  { "text": "Chili" },
  { "text": "Dessert" },
  { "text": "Egyptian" },
  { "text": "English " },
  { "text": "Fast Food" },
  { "text": "Fish & Chips" },
  { "text": "Fondue" },
  { "text": "French" },
  { "text": "German" },
  { "text": "Greek" },
  { "text": "Grill" },
  { "text": "Haitian" },
  { "text": "Hot Dogs" },
  { "text": "Hungarian" },
  { "text": "Iberian" },
  { "text": "Ice cream" }, 
  { "text": "Indian" },
  { "text": "Indonesian" },
  { "text": "Irish" },
  { "text": "Italian" },
  { "text": "Japanese" },
  { "text": "Korean" }, 
  { "text": "Late Night" },
  { "text": "Latin American" },
  { "text": "Lebanese" },
  { "text": "Malaysian" },
  { "text": "Mandarin" }, 
  { "text": "Indian" }
]